<?xml version="1.0" standalone="no"?>
<!DOCTYPE svg PUBLIC "-//W3C//DTD SVG 20010904//EN" "http://www.w3.org/TR/2001/REC-SVG-20010904/DTD/svg10.dtd">
<!-- Created using Krita: http://krita.org -->
<svg xmlns="http://www.w3.org/2000/svg" 
    xmlns:xlink="http://www.w3.org/1999/xlink"
    xmlns:krita="http://krita.org/namespaces/svg/krita"
    xmlns:sodipodi="http://sodipodi.sourceforge.net/DTD/sodipodi-0.dtd"
    width="75.0305pt"
    height="75.0305pt"
    viewBox="0 0 75.0305 75.0305">
<defs/>
<path id="shape0" transform="translate(4.5816918075, 12.613831459)" fill="#ffffff" fill-rule="evenodd" stroke="#000000" stroke-opacity="0" stroke-width="0.75030454659" stroke-linecap="square" stroke-linejoin="bevel" d="M15.4141 62.3272C16.1344 57.3052 16.1837 52.8803 15.5621 49.0525C13.4213 53.6399 12.1532 58.0923 12.2898 62.3272L1.00918 62.3272C4.30064 53.3151 4.4384 47.184 4.67624 40.7319C0.423706 42.3343 0.963754 40.522 0 32.6183C1.31159 23.6761 9.28127 5.5167 14.5754 6.45685C15.2127 6.67275 15.3743 7.9379 15.0603 10.2524L18.9207 10.1588L19.2463 1.22226C21.4725 0.245527 23.8899 0.0384027 26.3624 0.0525601C28.8687 1.57499 30.2984 2.78799 31.9902 4.07632L32.2692 6.95377L33.6838 6.91753L33.9652 4.03355C35.6709 2.7423 37.1124 1.52655 39.6394 0.000663869C42.1322 -0.0135256 44.5696 0.194069 46.8142 1.17302L47.1424 10.1298L51.0346 10.2236C50.7181 7.9039 50.881 6.63588 51.5235 6.41949C56.8613 5.4772 64.8967 23.6778 66.2191 32.6403C65.2474 40.5619 65.792 42.3784 61.5044 40.7723C61.7442 47.2391 61.883 53.3841 65.2016 62.4166L53.828 62.4166C53.9658 58.1721 52.6871 53.7096 50.5287 49.1118C49.5886 54.8665 49.4978 59.4889 50.6779 62.4166C50.6779 62.4166 38.9233 62.3868 15.4141 62.3272Z"/>
</svg>
