%YAML 1.1
%TAG !u! tag:unity3d.com,2011:
--- !u!1 &7801379031490518909
GameObject:
  m_ObjectHideFlags: 0
  m_CorrespondingSourceObject: {fileID: 0}
  m_PrefabInstance: {fileID: 0}
  m_PrefabAsset: {fileID: 0}
  serializedVersion: 6
  m_Component:
  - component: {fileID: 7801379031490518910}
  - component: {fileID: 7801379031490518911}
  - component: {fileID: 7801379031490518908}
  m_Layer: 0
  m_Name: UIEventSystem
  m_TagString: Untagged
  m_Icon: {fileID: 0}
  m_NavMeshLayer: 0
  m_StaticEditorFlags: 0
  m_IsActive: 1
--- !u!4 &7801379031490518910
Transform:
  m_ObjectHideFlags: 0
  m_CorrespondingSourceObject: {fileID: 0}
  m_PrefabInstance: {fileID: 0}
  m_PrefabAsset: {fileID: 0}
  m_GameObject: {fileID: 7801379031490518909}
  m_LocalRotation: {x: -0, y: -0, z: -0, w: 1}
  m_LocalPosition: {x: 0, y: 0, z: 0}
  m_LocalScale: {x: 1, y: 1, z: 1}
  m_Children: []
  m_Father: {fileID: 0}
  m_RootOrder: 0
  m_LocalEulerAnglesHint: {x: 0, y: 0, z: 0}
--- !u!114 &7801379031490518911
MonoBehaviour:
  m_ObjectHideFlags: 0
  m_CorrespondingSourceObject: {fileID: 0}
  m_PrefabInstance: {fileID: 0}
  m_PrefabAsset: {fileID: 0}
  m_GameObject: {fileID: 7801379031490518909}
  m_Enabled: 1
  m_EditorHideFlags: 0
  m_Script: {fileID: 11500000, guid: 76c392e42b5098c458856cdf6ecaaaa1, type: 3}
  m_Name: 
  m_EditorClassIdentifier: 
  m_FirstSelected: {fileID: 0}
  m_sendNavigationEvents: 1
  m_DragThreshold: 10
--- !u!114 &7801379031490518908
MonoBehaviour:
  m_ObjectHideFlags: 0
  m_CorrespondingSourceObject: {fileID: 0}
  m_PrefabInstance: {fileID: 0}
  m_PrefabAsset: {fileID: 0}
  m_GameObject: {fileID: 7801379031490518909}
  m_Enabled: 1
  m_EditorHideFlags: 0
  m_Script: {fileID: 11500000, guid: 01614664b831546d2ae94a42149d80ac, type: 3}
  m_Name: 
  m_EditorClassIdentifier: 
  m_MoveRepeatDelay: 0.5
  m_MoveRepeatRate: 0.1
  m_ActionsAsset: {fileID: -944628639613478452, guid: 041dd9f120ea21948b7c2f709ca3a630,
    type: 3}
  m_PointAction: {fileID: 0}
  m_MoveAction: {fileID: -8959189441346846072, guid: 041dd9f120ea21948b7c2f709ca3a630,
    type: 3}
  m_SubmitAction: {fileID: 1439074176257430662, guid: 041dd9f120ea21948b7c2f709ca3a630,
    type: 3}
  m_CancelAction: {fileID: 0}
  m_LeftClickAction: {fileID: -6515372763194106705, guid: 041dd9f120ea21948b7c2f709ca3a630,
    type: 3}
  m_MiddleClickAction: {fileID: 0}
  m_RightClickAction: {fileID: 0}
  m_ScrollWheelAction: {fileID: 0}
  m_TrackedDevicePositionAction: {fileID: -797332050698867351, guid: 041dd9f120ea21948b7c2f709ca3a630,
    type: 3}
  m_TrackedDeviceOrientationAction: {fileID: -73632678492722258, guid: 041dd9f120ea21948b7c2f709ca3a630,
    type: 3}
  m_DeselectOnBackgroundClick: 0
  m_PointerBehavior: 1
